{
  "type": "service_account",
  "project_id": "open-weather-map-9d760",
  "private_key_id": "bafa0fa8a4ae01d429349d49b228574a9809b164",
  "private_key": "-----BEGIN PRIVATE KEY-----\nMIIEvQIBADANBgkqhkiG9w0BAQEFAASCBKcwggSjAgEAAoIBAQDhpFnIe6ia2G0o\nTP9wtLEhqxq50upnNoXnruWKiHwWiL63idJGCS3VzE7oH3yYQwlYmwWBsgUNMZJ3\nfLlNOHrsn8LBY0dabZrHcd3BVJdQSkam9iF4fOI2PHd9NO6xMFtxhpDkpbhJu6yz\nbhIbjt573OcL8UFcgYZU0KHExmvQpTE1wCIAIJDJ/X9noTd4jqOHH4nBA792CVHs\nAKOhGdp5zongii1OHJLeVvEzMCBIN2zYnXuIFi0NQAnubro6dbXkC6z26HEMWDcV\nC+3X9HG6nkr3/3BLzJC7AorGZumzet/4uv+7OMgp0tP4hmpaS1LG8zNOUzlTxTiC\nTM0UA+ChAgMBAAECggEAbUiJR4VEssJRk+w+51pMU+8oAYn6h0Sr8/sMJ11VJCDU\npdX1ZoA5l8vdB6WAVcpZ83UZZKhQtAQnWQGqSZEqUAJMdBdeTpi5FxG6AlGy+2sN\n7v1UVqO9d+EvSg/h7yVplIFFGch9ihCAY2LTGE/Ix5rEuE7/hgshgWCOiNxFCYaf\na/NZwBuPgPmcXuwFE6CcVSw4C4MNFTEUx4lgmkTh4HtDCc0hDowoJ7V97FK9fMdE\ntpM7yOB6FDQg9SWd18ev6Eb38zjJP0QHRUosKXpim90+VKUahY7u944c1OrmNQu4\nO78PhZLaZl5M49GsyjoUdmEXL3Ko/MiELboR10XWdQKBgQD46/L7GEqBmffvaHFJ\nNlcskyPsmu94/vFuNGLHTJYUCZeeDq2SWG4IgIvkJQ+joqXudKtM8ol3F+pBaJaA\n/PU4CNBvQzNuihnYkaTnL5oZWULcDMJHZQM+OnGSIs2IWCm4Y+PvBSyoVg6J7Ede\n+7mQ0y1tscU97HWSyPqDF7IjhwKBgQDoDu9LchjDJuICCRq4EiZuXYM4wRv06DtS\nDafgaf0ZlqLrS4Zt0BiLewAZa7YG2WPEhv+G8DvIvKR/xZRzfhercx4jwSNMd4nt\nr3/zv1OT6HnYiu2Lyui9iFcwP7iNNUP/dgERLH2zJVNEtznBueTAePt3Sxi3qvNX\nLqlCqNq0lwKBgHqpkuAHVVfOLq5sMj8YpxaRH4fNxapDP2fGKtL5O49+NpettfzC\n1N4dslHnrXA+izQZi/xsHC9yun4m8tt3S8OkHEpnvCWBqkDdbHx8KZzKLrdPFkGm\nVlXI6QRRYCULBOwXVVAIpbwCREHVDEqTExt55Q4EJyVfq4R8w23sNF1rAoGACJGk\nnHCWIX6qEdEsP2fMK38gfVQEKEL7DcibTlobknpRgcbELAHnJh9gnY+wpQgZ+wPR\nI7ZzPrJYkK9HEAyz6wzRLBjRqN0xJqm4W9PQzkFjXm+i3eqcNYN3VLzFn9E7tY8x\n8uRlr9vM+1iYtWKb48+T2Y/YVc/mNG3wqhl6GfkCgYEAuIZLVsKXgBmh9vgoqPbS\nHOgOTwM1j3kmG/16D/N/oxcMoAeyDUqfEFS7pU0LYG8Q2IB4UAIAFmo9mokygLm9\nPYWwO68QdhNJGPkSj3VsR97qInyN35SO50O2lEYoBPh68O8RXf6HeJRo5pic6vnQ\nR2ShgKdxZKm5LHinBuF1/C4=\n-----END PRIVATE KEY-----\n",
  "client_email": "firebase-adminsdk-iuc9d@open-weather-map-9d760.iam.gserviceaccount.com",
  "client_id": "111172087027309782237",
  "auth_uri": "https://accounts.google.com/o/oauth2/auth",
  "token_uri": "https://accounts.google.com/o/oauth2/token",
  "auth_provider_x509_cert_url": "https://www.googleapis.com/oauth2/v1/certs",
  "client_x509_cert_url": "https://www.googleapis.com/robot/v1/metadata/x509/firebase-adminsdk-iuc9d%40open-weather-map-9d760.iam.gserviceaccount.com"
}
